<?xml version="1.0" encoding="UTF-8"?>
<svg id="Layer_1" data-name="Layer 1" xmlns="http://www.w3.org/2000/svg" version="1.1" viewBox="0 0 1000 350">
  <defs>
    <style>
      .cls-1 {
        fill: #7a8189;
      }

      .cls-1, .cls-2, .cls-3, .cls-4, .cls-5 {
        stroke-width: 0px;
      }

      .cls-2, .cls-5 {
        fill: #f58b1f;
      }

      .cls-3, .cls-4 {
        fill: #18335b;
      }

      .cls-3, .cls-5 {
        fill-rule: evenodd;
      }
    </style>
  </defs>
  <path class="cls-5" d="M110.0184715,122.5250213c-7.136795,12.7421325-9.3889401,28.1468047-8.107721,45.4833249-15.9551996-19.3284077-30.6591998-39.3574797-38.436612-63.3603532,16.0653051-22.3813186,47.2950481-43.5014338,69.7664488-59.1763638-16.3555749,49.6973339,3.2731219,77.5538688,28.907539,101.3565394,8.2378422,7.6372793,17.1263133,14.8741681,25.7144952,22.2712131,2.2821725-10.530034,1.0009534-21.4904707,15.2144886-30.549102,3.8636807,13.2626325,18.5076338,24.6034364,28.907539,37.7359401,30.6291648,38.686858,12.8122065,86.372262-5.4451889,115.6501489l-.9509027-.1501369c-3.3532-2.3121999-6.7964669-4.5143096-10.3198271-6.5962792l5.1949506-22.3612952-4.6944739-1.8918166c-39.1673114-31.7402237-86.1020156-92.2678769-105.7507357-138.4118194M181.5365887,3.811945c-22.5514788,33.2416624-13.9933242,50.3079171-5.7254547,65.8226947,8.2278382,15.4146839,16.505727,29.3479533-6.5562478,56.3937184-16.6758873-19.2683529-22.8917993-42.960918-20.3794118-65.2021037,2.5424302-22.2411895,13.9833202-43.2812285,32.6611143-57.0143094Z"/>
  <path class="cls-3" d="M192.1767282,327.5202802c-19.3884624,11.8613039-41.989992,18.367501-65.0619709,18.6677748-13.6730271-.1801643-27.4061013-2.6425316-40.7287962-7.1267833h0c-2.7826492-.9308793-5.5452827-1.9618601-8.2878929-3.062915-4.6143958-2.0119261-10.049573-5.0848298-15.5548167-8.648252l.800762-.6205862c16.2955239-12.4018273,38.8870418-20.0791227,63.9008651-20.0791227s47.6153528,7.677326,63.9108729,20.0791227l1.0209767.7907617ZM35.32733,305.3591573l1.3412777-.9208906c26.4051479-18.0371692,57.4547266-27.5062104,89.4151689-27.5062104,32.1906649,0,63.4504353,9.5991394,89.9656963,27.8865776l2.0619616,1.4213673c-5.5652984,6.0557558-11.721171,11.4709174-18.3274543,16.225446-1.0810315-.9108713-2.2020944-1.8017039-3.3431807-2.672559-17.7669228-13.5228902-42.2402303-21.8908459-69.1959057-21.8908459s-51.4289828,8.3679557-69.1959057,21.8908459c-1.0309808.7807424-2.0419458,1.5915122-3.0228797,2.402282-7.8775174-5.6753887-15.2044998-11.8612733-19.6987785-16.8360129Z"/>
  <path class="cls-3" d="M181.7868271,247.2638288l-12.171597,19.5986694c-4.9447122-1.3713013-12.2616791-3.2430792-17.3465242-3.9937943l-3.7936067-22.6315569h-44.7826605l-3.7936143,22.6315569c-5.4251656.8107698-10.760249,1.871778-16.0152544,3.1630164l-12.3918003-19.4184898-41.2893277,17.0362158,5.3951382,22.3212486c-2.0819849,1.2511917-4.1339386,2.5524189-6.155863,3.8937234-1.8017154.2502383-3.5834131.510496-5.3651108.7707231C5.789195,262.0579341.8544945,236.5936619,4.9784223,203.7824108c2.9428026-23.4823734,10.9003828-40.7388002,18.02717-49.3269822,24.0429011,29.2778869,55.392765,51.8193617,94.5700804,67.1239324-1.6916137-14.563875-.0500507-27.6563473,5.1549115-39.157292,30.1687424,29.9685472,56.7440429,50.6482328,89.2049696,76.9633062l-30.1487267-12.1215463Z"/>
  <path class="cls-4" d="M464.095732,62.0313281h8.8784518v42.8808399h26.7955115v8.077686h-35.6739632v-50.9585259ZM441.5242145,62.0313281h8.8884711v50.9685452h-8.8884711v-50.9685452ZM382.0375614,62.0313281h9.8994438l15.3646408,39.1673114,15.2845474-39.1673114h9.6892216l-21.1901969,51.328889h-7.867479l-21.1801776-51.328889ZM363.840236,62.0313281h8.8884711v50.9685452h-8.8884711v-50.9685452ZM333.3311654,113.8706979c-3.7335672,0-7.1868381-.680641-10.3398352-2.0419382-3.1529971-1.3612972-5.8956302-3.2130671-8.2178188-5.5753178-2.3121999-2.3522466-4.1339424-5.1348958-5.4552082-8.3379436-1.3212658-3.2030478-1.9818987-6.6263142-1.9818987-10.269784v-.1501445c0-3.6434698.6406248-7.0467128,1.941852-10.229745,1.3012272-3.1830321,3.1229697-5.975693,5.465197-8.3779827,2.3422273-2.4022897,5.1248765-4.294091,8.3279396-5.6754039,3.2030631-1.3813129,6.7464161-2.0719732,10.6301202-2.0719732,2.332208,0,4.4542548.1901836,6.3660489.5805548,1.9118247.3903712,3.6735124.930887,5.2750134,1.641563,1.6015315.7006643,3.082923,1.5414691,4.4442355,2.5123952,1.361282.970926,2.6425316,2.0419458,3.8636655,3.2030478l-5.755482,6.6263142c-2.0419535-1.8918013-4.1939972-3.4232588-6.4761697-4.5843684-2.2821725-1.1611096-4.8746382-1.7516684-7.7874162-1.7516684-2.4223207,0-4.6744658.4704493-6.7364274,1.421352s-3.8436574,2.2321294-5.3551068,3.8536691c-1.5014301,1.6315513-2.672559,3.5333643-3.4933176,5.715443-.8207891,2.1820787-1.2411724,4.514302-1.2411724,6.9866581v.1401329c0,2.4723561.4103946,4.8145834,1.2411724,7.0266895.8307779,2.2121137,1.9918875,4.1439465,3.4933176,5.7855094,1.5014301,1.651567,3.2931452,2.9528095,5.3551068,3.8937081,2.0619616.9509027,4.3040874,1.421352,6.7364274,1.421352,3.1029616,0,5.7754901-.6005781,8.0076272-1.7816958,2.2321371-1.191137,4.4442355-2.8026726,6.6263066-4.8446108l5.755482,5.8255561c-1.3112465,1.411348-2.6825478,2.6525204-4.1139038,3.7535752-1.431356,1.0910355-2.9728328,2.0319342-4.6243998,2.842704-1.651567.8007658-3.4632902,1.411348-5.4251809,1.8217425-1.9718183.4304179-4.1439006.6406096-6.5261746.6406096Z"/>
  <path class="cls-2" d="M958.306453,141.1667013h37.7159167v8.077686h-28.837465v13.1024763h25.5543696v8.0777013h-25.5543696v13.6129723h29.1977935v8.0877053h-38.0762453v-50.9585412ZM905.666348,141.1667013h22.7216544c3.2030631,0,6.0457365.450426,8.5181232,1.3512932,2.4723256.9008519,4.5343482,2.1420397,6.1858847,3.7435712,1.361282,1.411348,2.4023126,3.0328876,3.1229697,4.8746382.7306764,1.8417506,1.0910661,3.8837041,1.0910661,6.1158259v.1501369c0,2.0819849-.3002738,3.9637822-.9108407,5.6453766-.6105669,1.6715903-1.4413753,3.1529971-2.5124028,4.4442355-1.0710275,1.2812191-2.3422578,2.3722547-3.8236493,3.2731219-1.4813915.8908479-3.1129504,1.5915122-4.9146543,2.0719809l13.7631092,19.2983803h-10.5600461l-12.5619529-17.7669228h-11.2507675v17.7669228h-8.8784518v-50.9685605h.0099582ZM927.6873228,166.4307706c3.2130824,0,5.7755207-.7607191,7.6672761-2.3021959,1.9018359-1.5314575,2.8526927-3.6134424,2.8526927-6.2459547v-.1401329c0-2.7826492-.92086-4.8946615-2.7826798-6.3260328-1.8417811-1.4413753-4.4542548-2.162063-7.8174436-2.162063h-13.0724489v17.186368h13.1526034v-.0099888ZM871.4437489,192.9360123c-3.303134,0-6.2860167-.4704493-8.9585451-1.421352-2.6625092-.9509027-4.9447122-2.3622506-6.8465481-4.2540519-1.8918166-1.8918013-3.3432112-4.2340286-4.3641422-7.0266971-1.020992-2.7926533-1.531488-6.0257437-1.531488-9.7192642v-29.3379417h8.8784518v28.9775978c0,4.7545286,1.1511208,8.3779751,3.4432821,10.8503312,2.2921613,2.4823602,5.4652275,3.7135438,9.5190766,3.7135438,4.0038136,0,7.1468219-1.191137,9.4389832-3.573411,2.2921613-2.3722547,3.4432821-5.9256423,3.4432821-10.6301202v-29.3379417h8.8784518v28.907539c0,3.7836026-.5205153,7.1067752-1.5715042,9.9795066-1.0409695,2.8627273-2.5124028,5.2550053-4.4042194,7.16683-1.8918166,1.9218287-4.1839779,3.3431807-6.876545,4.2940834-2.6724674.9408986-5.6953662,1.411348-9.0485356,1.411348ZM815.8908353,149.4645983h-16.1654218v-8.2978969h41.3493824v8.2978969h-16.1654218v42.6706482h-9.0286192v-42.6706482h.0100804ZM773.3702934,193.0060711c-3.7335366,0-7.1868381-.680641-10.3398657-2.0419382-3.1530276-1.3612972-5.8956302-3.2130671-8.2178494-5.5652984-2.3121999-2.3522466-4.1339424-5.1348958-5.4552082-8.3379436-1.3212658-3.2030478-1.9818682-6.6263066-1.9818682-10.2597723v-.1401329c0-3.6434698.6406248-7.0467052,1.941852-10.229745,1.3012272-3.1830245,3.1229697-5.965689,5.4652275-8.367971,2.3422578-2.402282,5.1248765-4.2940834,8.3179203-5.6754039,3.2030631-1.3813206,6.7464161-2.0719809,10.6301202-2.0719809,2.3322385,0,4.4542548.1901836,6.3660489.5805548,1.9218134.3903712,3.6734819.9308793,5.275044,1.641563,1.601501.7006643,3.0829536,1.5414615,4.4442355,2.5123875,1.361282.970926,2.6425316,2.0419382,3.8636655,3.2030478l-5.755482,6.6263066c-2.0419229-1.8918013-4.1939972-3.4232588-6.4761392-4.5843684-2.2822031-1.1611096-4.8746382-1.7416644-7.7874468-1.7416644-2.4222901,0-4.6744353.4704493-6.7363968,1.421352-2.0619616.9509027-3.8436879,2.2321218-5.3550762,3.8636807-1.5014301,1.6315589-2.6725285,3.5333643-3.4933176,5.7154506-.8207891,2.1920904-1.2411724,4.5142943-1.2411724,6.9966698v.1401329c0,2.4723561.410364,4.8145834,1.2411724,7.0266971.8308084,2.2121137,1.9918875,4.1439465,3.4933176,5.7855094,1.5014301,1.651567,3.2831565,2.9528095,5.3550762,3.8937081,2.0619616.9509027,4.3040874,1.421352,6.7363968,1.421352,3.1129504,0,5.7755207-.6005781,8.0076272-1.7816958,2.2321065-1.191137,4.4442355-2.8026726,6.6263066-4.8446108l5.755482,5.8255561c-1.3112465,1.4013286-2.6825478,2.6625397-4.1139038,3.7535752-1.431356,1.0910355-2.9728023,2.0419382-4.6243998,2.842704-1.6515975.8007658-3.4633208,1.411348-5.4251503,1.8217425-1.9618907.3703479-4.1339424.5705355-6.5162164.5705355ZM715.4250865,192.9360123c-3.303134,0-6.2860167-.4704493-8.9585451-1.421352-2.6725285-.9509027-4.9547315-2.3622506-6.8465481-4.2540519-1.8918166-1.8918013-3.3432112-4.2340286-4.3641422-7.0266971-1.020992-2.7926533-1.531488-6.0257437-1.531488-9.7192642v-29.3379417h8.8784518v28.9775978c0,4.7545286,1.1511208,8.3779751,3.4432821,10.8503312,2.2921613,2.4823602,5.4652275,3.7135438,9.5190766,3.7135438,4.0038136,0,7.1468219-1.191137,9.4389832-3.573411,2.2921613-2.3722547,3.4432821-5.9256423,3.4432821-10.6301202v-29.3379417h8.8884711v28.907539c0,3.7836026-.5205153,7.1067752-1.5715042,9.9795066-1.0409695,2.8627273-2.5124028,5.2550053-4.4042194,7.16683-1.8918166,1.9218287-4.1839779,3.3431807-6.876545,4.2940834-2.6924449.9408986-5.7053244,1.411348-9.0585549,1.411348ZM641.8850697,141.1667013h22.7216544c3.2030631,0,6.0457365.450426,8.5181232,1.3512932,2.4723256.9008519,4.5443064,2.1420397,6.1858847,3.7435712,1.361282,1.411348,2.4023126,3.0328876,3.132989,4.8746382.7306764,1.8417506,1.0910661,3.8837041,1.0910661,6.1158259v.1501369c0,2.0819849-.3002738,3.9637822-.9108407,5.6453766-.6105669,1.6715903-1.4413753,3.1529971-2.5124028,4.4442355-1.0710275,1.2812191-2.3422578,2.3722547-3.8236493,3.2731219-1.4813915.8908479-3.1229697,1.5915122-4.9146543,2.0719809l13.7631092,19.2983803h-10.5600461l-12.5619529-17.7669228h-11.2507675v17.7669228h-8.8784518v-50.9685605h-.0000611ZM663.9160637,166.4307706c3.2130824,0,5.7755207-.7607191,7.6672761-2.3021959,1.9018359-1.5314575,2.8526927-3.6134424,2.8526927-6.2459547v-.1401329c0-2.7826492-.92086-4.8946615-2.7826798-6.3260328-1.8417811-1.4413753-4.4542548-2.162063-7.8174436-2.162063h-13.0724489v17.186368h13.1526034v-.0099888ZM607.2320679,149.4645983h-16.1654218v-8.2978969h41.3493824v8.2978969h-16.1654218v42.6706482h-9.0286192v-42.6706482h.0100804ZM566.0228336,192.8559342c-3.9337395,0-7.6973341-.6606329-11.2907837-2.0019068-3.5934496-1.3312699-6.9165611-3.3832274-9.9794761-6.1558573l5.3851342-6.4060956c2.4723256,2.1320356,4.9747091,3.7735986,7.4971312,4.9146849,2.5224221,1.1410863,5.3851342,1.711637,8.5881973,1.711637,2.7626412,0,4.9647508-.5805548,6.5862905-1.7516684,1.6315589-1.1611096,2.4423287-2.7225945,2.4423287-4.6644465v-.1501369c0-.9208753-.1601257-1.7316451-.4704188-2.4423287-.3203124-.7006643-.9008825-1.3713013-1.7516684-2.0019068-.8608053-.6306055-2.0319647-1.2111603-3.5133562-1.7416644-1.4914108-.5305041-3.4232435-1.0710275-5.8055175-1.6015315-2.7325832-.6306055-5.1449151-1.3412739-7.2669314-2.1520437-2.111997-.8007658-3.8937234-1.7716918-5.3250794-2.9127781-1.431356-1.1410863-2.5324414-2.5324109-3.2831565-4.1839779-.750715-1.651567-1.1310822-3.6434698-1.1310822-5.965689v-.1501369c0-2.1820711.4304026-4.1839779,1.3012272-6.0057204.8708246-1.8217425,2.0619616-3.3732081,3.573411-4.6644465,1.5214687-1.2912232,3.3432112-2.2921766,5.4751858-3.0228835,2.1220163-.7306917,4.4542548-1.0910355,6.9766159-1.0910355,3.7335366,0,7.0967865.5505274,10.079608,1.641563,2.9828216,1.0910355,5.78554,2.6825478,8.408033,4.774552l-4.8045641,6.7764588c-2.3322385-1.7016177-4.6344191-3.0028602-6.9165611-3.8937081-2.2822031-.9008519-4.5843837-1.3512932-6.9165611-1.3512932-2.622493,0-4.664416.5805548-6.1158106,1.7516684-1.461414,1.1611096-2.1920904,2.5924656-2.1920904,4.2940834v.1401329c0,.970926.170145,1.8317466.510496,2.5824616.340351.750715.9609373,1.431356,1.8517393,2.0419382.9108407.6005781,2.1520742,1.1811177,3.7235173,1.711637,1.5915428.5305041,3.5934496,1.0910355,6.025759,1.6715903,2.6725285.680641,5.0447831,1.431356,7.1067447,2.2621492,2.0619616.8207891,3.7836332,1.8317466,5.1449151,3.0228835s2.4023126,2.5724576,3.1029311,4.1539505c.7006796,1.5815082,1.0509888,3.4032354,1.0509888,5.4952397v.1501369c0,2.3722547-.4504412,4.5142943-1.3312851,6.4060956-.9008825,1.8918013-2.1320356,3.4933329-3.7235173,4.8045794-1.5715042,1.3112465-3.4933176,2.3021959-5.7154659,2.9828368-2.1820711.6906603-4.6243998,1.0209767-7.2969283,1.0209767ZM508.6481775,140.8063575h8.2978817l22.4213806,51.328889h-9.4590218l-5.1648927-12.3017105h-24.1029444l-5.244986,12.3017105h-9.1787561l22.4313388-51.328889ZM521.4703881,171.8959676l-8.8083777-20.3894158-8.7383342,20.3894158h17.5467118ZM437.9608229,141.1667013h22.7216544c3.2030631,0,6.0457671.450426,8.5181232,1.3512932,2.4723561.9008519,4.5343177,2.1420397,6.1858847,3.7435712,1.361282,1.411348,2.402282,3.0328876,3.132989,4.8746382.730707,1.8417506,1.0910355,3.8837041,1.0910355,6.1158259v.1501369c0,2.0819849-.3002738,3.9637822-.9108713,5.6453766-.6105669,1.6715903-1.4513946,3.1529971-2.5124028,4.4442355-1.0710275,1.2812191-2.3422273,2.3722547-3.8236493,3.2731219-1.481422.8908479-3.1229697,1.5915122-4.9146849,2.0719809l13.7631092,19.2983803h-10.5500574l-12.5619529-17.7669228h-11.250737v17.7669228h-8.8784518v-50.9685605h-.0099888ZM459.9817977,166.4307706c3.2130519,0,5.7754901-.7607191,7.6673067-2.3021959,1.9018053-1.5314575,2.8527233-3.6134424,2.8527233-6.2459547v-.1401329c0-2.7826492-.9208906-4.8946615-2.7826492-6.3260328-1.8417506-1.4413753-4.4542548-2.162063-7.8174436-2.162063h-13.0724489v17.186368h13.1525118v-.0099888ZM390.1953255,141.1667013h37.8560648v8.077686h-28.9776131v14.053379h25.7044759v8.077686h-25.7044759v20.7497597h-8.8784518v-50.9585106ZM332.6805518,141.1667013h8.2878929l27.2359334,35.2335566v-35.2335566h8.8884711v50.9685452h-7.4871424l-28.0467032-36.2645373v36.2645373h-8.8784518v-50.9685452ZM310.1090649,141.1667013h8.8884711v50.9685452h-8.8884711v-50.9685452Z"/>
  <g>
    <path class="cls-1" d="M309.7637782,311.010565h5.3541151v30.462824h-5.3541151v-30.462824Z"/>
    <path class="cls-1" d="M324.1323662,311.010565h4.9607949l16.3210152,21.0621177v-21.0621177h5.2655294v30.462824h-4.4824325l-16.7993775-21.6715868v21.6715868h-5.2655294v-30.462824Z"/>
    <path class="cls-1" d="M359.4000745,311.010565h11.3566769c9.5743341,0,16.1899085,6.5730532,16.1899085,15.1445981v.0885856c0,8.5715449-6.6155743,15.2296403-16.1899085,15.2296403h-11.3566769v-30.462824ZM364.7541895,315.8863177v20.7113186h6.0025618c6.3994254,0,10.5771234-4.3052613,10.5771234-10.2688454v-.0850422c0-5.9635841-4.177698-10.357431-10.5771234-10.357431h-6.0025618Z"/>
    <path class="cls-1" d="M393.8421647,328.5469749v-17.5364099h5.3541151v17.320261c0,5.6588496,2.9126953,8.6601305,7.6998623,8.6601305,4.744646,0,7.6608847-2.8276531,7.6608847-8.4439816v-17.5364099h5.3505716v17.2777399c0,9.0959718-5.1344227,13.6634465-13.0964985,13.6634465-7.9195547,0-12.9689352-4.5674747-12.9689352-13.4047765Z"/>
    <path class="cls-1" d="M426.1050485,337.0334776l3.2209733-3.8268989c2.9162387,2.5229185,5.8749985,3.9580056,9.6168552,3.9580056,3.3095589,0,5.3966362-1.5661938,5.3966362-3.8304423v-.0850422c0-2.1756629-1.2189382-3.35208-6.8742443-4.6560603-6.4844676-1.5661938-10.1412821-3.4831867-10.1412821-9.0959718v-.0885856c0-5.2194649,4.3513258-8.8337583,10.3999521-8.8337583,4.4399114,0,7.9656192,1.3500449,11.0554857,3.8304423l-2.8737176,4.0465913c-2.7390675-2.0445562-5.4816783-3.1323876-8.2668103-3.1323876-3.1323876,0-4.9607949,1.6087149-4.9607949,3.61075v.0885856c0,2.3492907,1.392566,3.3946011,7.2675645,4.7871671,6.4384031,1.5661938,9.747962,3.8729634,9.747962,8.9188005v.0885856c0,5.7013707-4.4824325,9.0959718-10.8818579,9.0959718-4.6560603,0-9.0499072-1.6122583-12.7067218-4.8757527Z"/>
    <path class="cls-1" d="M463.7220475,315.9713599h-9.7054409v-4.9607949h24.7614533v4.9607949h-9.7018974v25.5020291h-5.3541151v-25.5020291Z"/>
    <path class="cls-1" d="M485.2341802,311.010565h13.5784043c3.8304423,0,6.8317232,1.1303525,8.7912372,3.0473454,1.6087149,1.6547794,2.5229185,3.9154845,2.5229185,6.5695098v.0885856c0,5.003316-3.0012809,8.0081403-7.2250434,9.2235351l8.2242892,11.5338481h-6.3533609l-7.4837134-10.6196445h-6.7006165v10.6196445h-5.3541151v-30.462824ZM498.4192643,326.112642c3.8304423,0,6.2683187-2.0020351,6.2683187-5.0919016v-.0885856c0-3.2634943-2.3492907-5.0458371-6.3108398-5.0458371h-7.788448v10.2263243h7.8309691Z"/>
    <path class="cls-1" d="M517.8903842,311.010565h5.3541151v30.462824h-5.3541151v-30.462824Z"/>
    <path class="cls-1" d="M543.0522445,310.7944161h4.9607949l13.401233,30.6789729h-5.6553062l-3.0898665-7.3561501h-14.4040223l-3.1323876,7.3561501h-5.4852218l13.4047765-30.6789729ZM550.7095858,329.3761363l-5.2655294-12.1858383-5.2194649,12.1858383h10.4849943Z"/>
    <path class="cls-1" d="M567.5266805,311.010565h5.3541151v25.5870713h16.0127372v4.8757527h-21.3668523v-30.462824Z"/>
    <path class="cls-1" d="M607.8898337,326.3287909v-.0850422c0-8.5325672,6.5305321-15.7540672,15.7115461-15.7540672,5.3080505,0,8.5715449,1.4776082,11.7074759,4.1316335l-3.3946011,4.0501347c-2.3528341-1.959514-4.6596038-3.2209733-8.5325672-3.2209733-5.6127851,0-9.8755252,4.8722093-9.8755252,10.7046867v.0885856c0,6.2647753,4.1316335,10.8783145,10.357431,10.8783145,2.8701742,0,5.4816783-.9142036,7.3526067-2.3067696v-5.6588496h-7.788448v-4.6985814h12.9689352v12.7953074c-3.0048243,2.5654396-7.313629,4.7411025-12.7102652,4.7411025-9.5282696,0-15.7965883-6.7856587-15.7965883-15.6654816Z"/>
    <path class="cls-1" d="M644.2489168,311.010565h13.5748609c3.8304423,0,6.8317232,1.1303525,8.7912372,3.0473454,1.6122583,1.6547794,2.5229185,3.9154845,2.5229185,6.5695098v.0885856c0,5.003316-3.0012809,8.0081403-7.2215,9.2235351l8.2242892,11.5338481h-6.3533609l-7.4872569-10.6196445h-6.7006165v10.6196445h-5.3505716v-30.462824ZM657.4340009,326.112642c3.8304423,0,6.2647753-2.0020351,6.2647753-5.0919016v-.0885856c0-3.2634943-2.3492907-5.0458371-6.3108398-5.0458371h-7.788448v10.2263243h7.8345125Z"/>
    <path class="cls-1" d="M687.3901152,310.7944161h4.9607949l13.4047765,30.6789729h-5.6588496l-3.0898665-7.3561501h-14.4040223l-3.1323876,7.3561501h-5.4816783l13.401233-30.6789729ZM695.0509998,329.3761363l-5.2655294-12.1858383-5.2230083,12.1858383h10.4885378Z"/>
    <path class="cls-1" d="M711.8680945,311.010565h11.3566769c9.5743341,0,16.186365,6.5730532,16.186365,15.1445981v.0885856c0,8.5715449-6.6120309,15.2296403-16.186365,15.2296403h-11.3566769v-30.462824ZM717.2186661,315.8863177v20.7113186h6.0061052c6.395882,0,10.57358-4.3052613,10.57358-10.2688454v-.0850422c0-5.9635841-4.177698-10.357431-10.57358-10.357431h-6.0061052Z"/>
    <path class="cls-1" d="M746.7850036,311.010565h22.5857904v4.7871671h-17.2316754v7.9195547h15.2757048v4.8296882h-15.2757048v8.139247h17.4513677v4.7871671h-22.8054828v-30.462824Z"/>
    <path class="cls-1" d="M790.7624503,311.010565h5.3541151v25.5870713h16.0127372v4.8757527h-21.3668523v-30.462824Z"/>
    <path class="cls-1" d="M818.8440928,311.010565h5.3541151v30.462824h-5.3541151v-30.462824Z"/>
    <path class="cls-1" d="M833.2126808,311.010565h4.9607949l16.3210152,21.0621177v-21.0621177h5.2655294v30.462824h-4.4824325l-16.7993775-21.6715868v21.6715868h-5.2655294v-30.462824Z"/>
    <path class="cls-1" d="M868.0020267,328.5469749v-17.5364099h5.3541151v17.320261c0,5.6588496,2.9162387,8.6601305,7.7034058,8.6601305,4.7411025,0,7.6573412-2.8276531,7.6573412-8.4439816v-17.5364099h5.3541151v17.2777399c0,9.0959718-5.1344227,13.6634465-13.1000419,13.6634465-7.9195547,0-12.9689352-4.5674747-12.9689352-13.4047765Z"/>
    <path class="cls-1" d="M927.6414115,311.010565l-10.6196445,14.8823847,11.0554857,15.5804394h-6.3108398l-8.0506614-11.6188903-8.0081403,11.6188903h-6.137212l11.0129646-15.4918537-10.5771234-14.9709703h6.3108398l7.529778,11.0094212,7.6573412-11.0094212h6.137212Z"/>
  </g>
  <g>
    <path class="cls-4" d="M309.4848244,219.8278224h20.4423828c12.1464844,0,19.7011719,6.8886719,19.7011719,17.3320312v.1474609c0,11.6289062-9.3320312,17.7021484-20.7382812,17.7021484h-10.2949219v16.6650391h-9.1103516v-51.8466797ZM329.1859963,246.7877833c6.8886719,0,11.1845703-3.8505859,11.1845703-9.2578125v-.1484375c0-6.0732422-4.3701172-9.2578125-11.1845703-9.2578125h-10.5908203v18.6640625h10.5908203Z"/>
    <path class="cls-4" d="M357.4867775,219.8278224h9.1103516v43.5517578h27.2558594v8.2949219h-36.3662109v-51.8466797Z"/>
    <path class="cls-4" d="M422.0932229,219.4577052h8.4433594l22.8125,52.2167969h-9.6279297l-5.2587891-12.5175781h-24.5166016l-5.3320312,12.5175781h-9.3330078l22.8125-52.2167969ZM435.1293557,251.0836818l-8.9619141-20.7382812-8.8886719,20.7382812h17.8505859Z"/>
    <path class="cls-4" d="M466.2436135,228.2721583h-16.5166016v-8.4443359h42.1435547v8.4443359h-16.5166016v43.4023438h-9.1103516v-43.4023438Z"/>
    <path class="cls-4" d="M499.3354104,219.8278224h38.5888672v8.2958984h-29.4785156v14.1464844h26.1455078v8.2958984h-26.1455078v21.1083984h-9.1103516v-51.8466797Z"/>
    <path class="cls-4" d="M542.7592385,245.8991114v-.1474609c0-14.5917969,11.2578125-26.8125,27.1816406-26.8125,15.9248047,0,27.0341797,12.0732422,27.0341797,26.6640625v.1484375c0,14.5908203-11.2578125,26.8115234-27.1816406,26.8115234-15.9248047,0-27.0341797-12.0722656-27.0341797-26.6640625ZM587.4213479,245.8991114v-.1474609c0-10.0732422-7.3330078-18.3691406-17.6279297-18.3691406-10.2958984,0-17.4794922,8.1474609-17.4794922,18.2207031v.1484375c0,10.0722656,7.3320312,18.3681641,17.6269531,18.3681641,10.2958984,0,17.4804688-8.1474609,17.4804688-18.2207031Z"/>
    <path class="cls-4" d="M606.9809182,219.8278224h23.1083984c6.5175781,0,11.6289062,1.9257812,14.9619141,5.1845703,2.7402344,2.8144531,4.2958984,6.6660156,4.2958984,11.1845703v.1484375c0,8.5175781-5.1113281,13.6279297-12.2949219,15.7011719l13.9980469,19.6279297h-10.8134766l-12.7392578-18.0722656h-11.40625v18.0722656h-9.1103516v-51.8466797ZM629.423301,245.5289943c6.5175781,0,10.6650391-3.4072266,10.6650391-8.6660156v-.1474609c0-5.5556641-3.9990234-8.5917969-10.7392578-8.5917969h-13.2578125v17.4052734h13.3320312Z"/>
    <path class="cls-4" d="M659.5961525,219.8278224h9.7021484l15.7763672,24.5166016,15.7763672-24.5166016h9.7021484v51.8466797h-9.109375v-37.1816406l-16.3691406,24.4423828h-.2958984l-16.2207031-24.2939453v37.0332031h-8.9619141v-51.8466797Z"/>
  </g>
</svg>